key	description	normative	pronoun_subject	before_verb	after_noun_1	after_noun_2	after_verb_1	after_verb_2	after_verb_3	pronoun_object	2nd_person	possessive_pronoun	reflexive	plural	pluralHonorific	pronounceable	history	thirdForm	smallForm	sourcesInfo
هو,هو/له	المعياري "هو/له"	TRUE	هو	ي						له	أنتَ	ه	نفسه	FALSE	FALSE	TRUE
هي,هي/لها	المعياري "هي/لها"	TRUE	هي	ت	ة	ة			ت	لها	أنتِ	ها	نفسها	FALSE	FALSE	TRUE
هم,هم/لهم	المفرد "هم"	TRUE	هم	ي	ون	ين	ون	ين	وا	لهم	أنتُم	هم	نفسهم	TRUE	TRUE	TRUE	لقد تم استخدام  ضمير"هم" المفرد في اللغة العربية لوصف شخص غير محدد الجنس منذ أواخر القرن الثالث عشر (حتى أنه أقدم من "أنت" المفرد!). في الوقت الحاضر، هو الخيار الأكثر شيوعًا بين الأشخاص الذين يفضلون الأشكال المحايدة بين الجنسين. يبدأ {https://www.merriam-webster.com/words-at-play/singular-nonbinary-they= قبوله من قِبَلْ القواميس} أيضًا.
هن,هن/لهن	المفرد "هُنّ"	TRUE	هُنّ	ي	ات	ات	نّ	نّ	وا	لهُنّ	أنتُنّ	هُنّ	نفسهُنّ	TRUE	TRUE	TRUE
