key	description	normative	pronoun_n	pronoun_possessive	pronoun_g	pronoun_g_acc	pronoun_g_prep	pronoun_d	pronoun_d_acc	pronoun_d_prep	pronoun_a	pronoun_a_acc	pronoun_a_prep	pronoun_i	pronoun_l	pronoun_all	adjective_n	adjective_n_c	adjective_n_k	adjective_ll	adjective_middle	verb_end_inter	verb_end_about	verb_middle_inter	verb_middle_inter_soft	verb_middle_about	verb_nasal	verb_go	verb_o	honorific	plural	pluralHonorific	pronounceable	history	thirdForm	smallForm	sourcesInfo
on,on/jego	Rodzaj męski	TRUE	on	jego	go	jego	niego	mu	jemu	niemu	go	jego	niego	nim	nim		y	y	ki					e	e	e	ą	szedł	ó	pan	FALSE	FALSE	TRUE
ona,ona/jej	Rodzaj żeński	TRUE	ona	jej	jej	jej	niej	jej	jej	niej	ją	ją	nią	nią	niej		a	a	ka			a	a	a	a	a	ę	szł	o	pani	FALSE	FALSE	TRUE
ono,ono/jego	Rodzaj neutralny	TRUE	ono	jego	go	jego	niego	mu	jemu	niemu	je	je	nie	nim	nim		e	e	kie			o	o	o	o	o	ę	szł	o	państwo	FALSE	FALSE	TRUE	Formy „byłom”, „zrobiłoś”, itp. są {https://rjp.pan.pl/index.php?option=com_content&view=article&id=317:byom-byo&catid=44&Itemid=208=wg RJP} poprawne gramatycznie.@Występują one chociażby w {https://gramatyki.uw.edu.pl/book/520=„Grammatyce języka polskiego przez Maxymiliana Jakubowicza ułożonej”} z 1823 czy {https://books.google.pl/books?id=c1Yv6X0fyF8C=Praktische Polnische Grammatik für Deutsche} z 1796.@Normatywna odmiana rodzaju neutralnego w liczbie mnogiej dostępna jest {/one=tutaj}, a neologiczna {/ona/ich=tutaj}.@Rzeczowniki zgodne rodzajowo z rodzajem neutralnym to {/neutratywy=neutratywy}.
ono/jej	Rodzaj neutralny z formami żeńskimi zamiast męskich	FALSE	ono	jej	jej	jej	niej	jej	jej	niej	je	je	nie	nią	niej		e	e	kie			o	o	o	o	o	ę	szł	o	państwo	FALSE	FALSE	TRUE	Formy „byłom”, „zrobiłoś”, itp. są {https://rjp.pan.pl/index.php?option=com_content&view=article&id=317:byom-byo&catid=44&Itemid=208=wg RJP} poprawne gramatycznie.@Występują one chociażby w {https://gramatyki.uw.edu.pl/book/520=„Grammatyce języka polskiego przez Maxymiliana Jakubowicza ułożonej”} z 1823 czy {https://books.google.pl/books?id=c1Yv6X0fyF8C=Praktische Polnische Grammatik für Deutsche} z 1796.@Normatywna odmiana rodzaju neutralnego w liczbie mnogiej dostępna jest {/one=tutaj}, a neologiczna {/ona/ich=tutaj}.@Rzeczowniki zgodne rodzajowo z rodzajem neutralnym to {/neutratywy=neutratywy}.
ono/jejgo	Rodzaj neutralny z formami łączonymi	FALSE	ono	jejgo	jejgo	jejgo	niejgo	jejmu	jejmu	niejmu	jągo	jągo	niągo	niąnim	niejnim		e	e	kie			o	o	o	o	o	ę	szł	o	państwo	FALSE	FALSE	TRUE	Formy „byłom”, „zrobiłoś”, itp. są {https://rjp.pan.pl/index.php?option=com_content&view=article&id=317:byom-byo&catid=44&Itemid=208=wg RJP} poprawne gramatycznie.@Występują one chociażby w {https://gramatyki.uw.edu.pl/book/520=„Grammatyce języka polskiego przez Maxymiliana Jakubowicza ułożonej”} z 1823 czy {https://books.google.pl/books?id=c1Yv6X0fyF8C=Praktische Polnische Grammatik für Deutsche} z 1796.@Normatywna odmiana rodzaju neutralnego w liczbie mnogiej dostępna jest {/one=tutaj}, a neologiczna {/ona/ich=tutaj}.@Rzeczowniki zgodne rodzajowo z rodzajem neutralnym to {/neutratywy=neutratywy}.
ono/jeno	Rodzaj neutralny z elementami postpłciowego	FALSE	ono	jeno	no	jeno	nieno	nu	jenu	nienu	je	je	nie	niem	niem		e	e	kie			o	o	o	o	o	ę	szł	o	państwo	FALSE	FALSE	TRUE	Formy „byłom”, „zrobiłoś”, itp. są {https://rjp.pan.pl/index.php?option=com_content&view=article&id=317:byom-byo&catid=44&Itemid=208=wg RJP} poprawne gramatycznie.@Występują one chociażby w {https://gramatyki.uw.edu.pl/book/520=„Grammatyce języka polskiego przez Maxymiliana Jakubowicza ułożonej”} z 1823 czy {https://books.google.pl/books?id=c1Yv6X0fyF8C=Praktische Polnische Grammatik für Deutsche} z 1796.@Normatywna odmiana rodzaju neutralnego w liczbie mnogiej dostępna jest {/one=tutaj}, a neologiczna {/ona/ich=tutaj}.@Rzeczowniki zgodne rodzajowo z rodzajem neutralnym to {/neutratywy=neutratywy}.
ono/jenu	Rodzaj neutralny z formami postpłciowymi zamiast męskich	FALSE	ono	jenu	nu	jenu	nienu	wu	jewu	niewu	nu	jenu	nienu	num	num		e	e	kie			o	o	o	o	o	ę	szł	o	państwo	FALSE	FALSE	TRUE	Formy „byłom”, „zrobiłoś”, itp. są {https://rjp.pan.pl/index.php?option=com_content&view=article&id=317:byom-byo&catid=44&Itemid=208=wg RJP} poprawne gramatycznie.@Występują one chociażby w {https://gramatyki.uw.edu.pl/book/520=„Grammatyce języka polskiego przez Maxymiliana Jakubowicza ułożonej”} z 1823 czy {https://books.google.pl/books?id=c1Yv6X0fyF8C=Praktische Polnische Grammatik für Deutsche} z 1796.@Normatywna odmiana rodzaju neutralnego w liczbie mnogiej dostępna jest {/one=tutaj}, a neologiczna {/ona/ich=tutaj}.@Rzeczowniki zgodne rodzajowo z rodzajem neutralnym to {/neutratywy=neutratywy}.
ono/ich	Rodzaj neutralny z formami mnogimi zamiast męskich	FALSE	ono	ich	ich	ich	nich	im	im	nim	je	je	nie	nimi	nich	tkie	e	e	kie	ł	o	o	o	o	o	ały	ę	szł	o	państwo	FALSE	FALSE	TRUE	Formy „byłom”, „zrobiłoś”, itp. są {https://rjp.pan.pl/index.php?option=com_content&view=article&id=317:byom-byo&catid=44&Itemid=208=wg RJP} poprawne gramatycznie.@Występują one chociażby w {https://gramatyki.uw.edu.pl/book/520=„Grammatyce języka polskiego przez Maxymiliana Jakubowicza ułożonej”} z 1823 czy {https://books.google.pl/books?id=c1Yv6X0fyF8C=Praktische Polnische Grammatik für Deutsche} z 1796.@Normatywna odmiana rodzaju neutralnego w liczbie mnogiej dostępna jest {/one=tutaj}, a neologiczna {/ona/ich=tutaj}.@Rzeczowniki zgodne rodzajowo z rodzajem neutralnym to {/neutratywy=neutratywy}.
vono,vono/vego	Rodzaj neutralny z neozaimkami vono/vego	FALSE	vono	vego	vo	vego	viego	vu	vemu	viemu	vo	vego	viego	vim	vim		e	e	kie			o	o	o	o	o	ę	szł	o	państwo	FALSE	FALSE	TRUE	"Forma została stworzona przez tłumacza Pawła Wieczorka dla oddania użytych przez Grega Egana w powieści „Distress” (pl. „Stan wyczerpania”) form {https://en.pronouns.page/ve=ve/ver}. Ponieważ nie wszystkie formy znalazły się w powieści, podążając za algorytmem Wieczorka (zamiana pierwszej litery na &lt;v&gt;, uzupełniłośmy schemat odmiany o brakujące elementy."
ono/eno	Neozaimki ono/eno	FALSE	ono	eno	no	eno	eno	ne	ne	ne	no	no	no	em	em		u	u	ku			o	u	o	o	o	ę	szł	o	pan	FALSE	FALSE	TRUE	"Formy stworzone przez {https://twitter.com/NicoBillie/status/1312894040061497346=&#64;NicoBillie}."
onu,onu/jenu	Rodzaj postpłciowy, dukaizmy	FALSE	onu	jenu	nu	jenu	nienu	wu	jewu	niewu	nu	jenu	nienu	num	num		u	u	ku			u	u	u	u	u	ę	szł	o	panu	FALSE	FALSE	TRUE	"Formy te zostały stworzone przez {https://pl.wikipedia.org/wiki/Jacek_Dukaj=Jacka Dukaja} do książki {https://pl.wikipedia.org/wiki/Perfekcyjna_niedoskonałość=„Perfekcyjna niedoskonałość”}. Używają jej tam istoty post-ludzkie (phoebe), które nie mają określonej płci. Od nazwiska autora te formy gramatyczne są nazywane „dukaizmami”.@Odmiana dukaizmów w liczbie mnogiej dostępna jest {/ony=tutaj}.@Rzeczowniki zgodne z rodzajem postpłciowym to {/dukatywy=dukatywy}.@Tabelę zaimków (nie tylko osobowych) w rodzaju postpłciowym znajdziesz {/zaimki-postpłciowe=tutaj}.@Oficjalne tabele odmiany dukaizmów Jacek Dukaj opublikował {https://dukaj.wydawnictwoliterackie.pl/odmiany-postplciowe-w-perfekcyjnej-niedoskonalosci/=tutaj}.@Nie wszystkie użyte w tabelce odmiany zaimka formy pojawiają się w powieści Dukaja; zostały utworzone w oparciu o te, które w niej znajdziemy, oświadczenie pisarza i {/jak-działają-zaimki=reguły odmiany standardowych polskich zaimków}."
onu/jejo	Rodzaj postpłciowy z łączonymi formami męskimi i żeńskimi	FALSE	onu	jejo	jo	jejo	niejo	ju	jeju	nieju	gą	jegą	niegą	nimą	nimej		u	u	ku			u	u	u	u	u	ę	szł	o	panu	FALSE	FALSE	TRUE	Formy te wymyśliłu Len Król.@Rzeczowniki zgodne z rodzajem postpłciowym to {/dukatywy=dukatywy}.@Tabelę zaimków (nie tylko osobowych) w rodzaju postpłciowym znajdziesz {/zaimki-postpłciowe=tutaj}.@Oficjalne tabele odmiany dukaizmów Jacek Dukaj opublikował {https://dukaj.wydawnictwoliterackie.pl/odmiany-postplciowe-w-perfekcyjnej-niedoskonalosci/=tutaj}.
onu/jegie	Formy zmieszane z elementami postpłciowego	FALSE	onu	jegie	gie	jegie	niegie	nień&jeń&jemi	nień&jeń&jemi	nień&jeń&jemi	gie	gie	gie	ni&nium&eń	nium		u	u	ku			u	u	u	u	u	ę	szł	o	pań	FALSE	FALSE	TRUE	Formy stworzone przez Bartosza Wróbla. Komentarz autora w {/blog/neozaimki-neutralne-metodą-fuzji-morfologicznej=poście na naszym blogu}.@Rzeczowniki zgodne z rodzajem postpłciowym to {/dukatywy=dukatywy}.@Tabelę zaimków (nie tylko osobowych) w rodzaju postpłciowym znajdziesz {/zaimki-postpłciowe=tutaj}.@Oficjalne tabele odmiany dukaizmów Jacek Dukaj opublikował {https://dukaj.wydawnictwoliterackie.pl/odmiany-postplciowe-w-perfekcyjnej-niedoskonalosci/=tutaj}.
onu/jegu	Dukaizmy z zaimkami onu/jegu	FALSE	onu	jegu	gu	jegu	niegu	wu	jewu	niewu	gu&go	jegu&jego	niegu&niego	num&nim	num&nim		u&e	u&e	ku&kie			u	u	u	u	u	ę	szł	o	panu	FALSE	FALSE	TRUE	Rzeczowniki zgodne z rodzajem postpłciowym to {/dukatywy=dukatywy}.@Tabelę zaimków (nie tylko osobowych) w rodzaju postpłciowym znajdziesz {/zaimki-postpłciowe=tutaj}.@Oficjalne tabele odmiany dukaizmów Jacek Dukaj opublikował {https://dukaj.wydawnictwoliterackie.pl/odmiany-postplciowe-w-perfekcyjnej-niedoskonalosci/=tutaj}.
ne,ne/nego	Rodzaj postpłciowy z neozaimkami ne/nego	FALSE	ne	nego	go	nego	nia	nemu	nemu	nemu	ne	ne	ne	nym	nym		u	u	ku			u	u	u	u	u	u	szł	o	panu	FALSE	FALSE	TRUE	Formy stworzone przez {http://transpomoc.pl/viewtopic.php?p=49434&highlight=#49434=Freję Draco} na bazie dukaizmów.@Rzeczowniki zgodne z rodzajem postpłciowym to {/dukatywy=dukatywy}.@Tabelę zaimków (nie tylko osobowych) w rodzaju postpłciowym znajdziesz {/zaimki-postpłciowe=tutaj}.@Oficjalne tabele odmiany dukaizmów Jacek Dukaj opublikował {https://dukaj.wydawnictwoliterackie.pl/odmiany-postplciowe-w-perfekcyjnej-niedoskonalosci/=tutaj}.
oni,oni/ich	Formy męskoosobowe liczby mnogiej	TRUE	oni	ich	ich	ich	nich	im	im	nim	ich	ich	nich	nimi	nich	cy	i	y	cy	l	e	li	li	ali	eli	eli	ęli	szli	o	państwo	TRUE	TRUE	TRUE	Druga osoba liczby mnogiej może być w normatywnej polszczyźnie używana jako wyraz szacunku lub skromości (zob. {https://pl.wikipedia.org/wiki/Per_wy=„Per wy”}, {http://www.dialektologia.uw.edu.pl/index.php?l1≡leksykon&lid≡653=„Pluralis maiestaticus”}, {https://pl.wikipedia.org/wiki/Pluralis_modestiae=„Pluralis modestiæ”)
one,one/ich	Formy niemęskoosobowe liczby mnogiej	TRUE	one	ich	ich	ich	nich	im	im	nim	je	je	nie	nimi	nich	tkie	e	e	kie	ł	o	ły	ły	ały	ały	ały	ęły	szły	o	państwo	TRUE	TRUE	TRUE
oni/e,oni/e/ich	Formy liczby mnogiej z ukośnikiem	TRUE	oni/e	ich	ich	ich	nich	im	im	nim	ich/je	ich/je	nich/nie	nimi	nich	cy/tkie	i/e	i/e	cy/kie	li/łe	eni/one	li/ły	li/ły	ali/ały	eli/ały	eli/ały	ęli/eły	szli/szły	o	państwo	TRUE	TRUE	FALSE
ona/ich	Neutralne formy mnogie z zaimkiem „ona”	FALSE	ona	ich	ich	ich	nich	im	im	nim	je	je	nie	nimi	nich	tkie	e	e	kie	ł	o	ło	ły	ało	ało	ały	ęło	szło	o	państwo	TRUE	TRUE	TRUE	Zaimek „ona” zapożyczony z {https://en.wiktionary.org/wiki/ona=języka chorwackiego, czeskiego, słoweńskiego i serbsko-chorwackiego}, gdzie jest nienacechowaną płciowo formą liczby mnogiej. Dość zresztą intuicyjny w polszczyźnie: jak <em>to okno → te okna</em>, tak to <em>ono → te ona</em>.@Odmiana rodzaju neutralnego w liczbie pojedynczej dostępna jest {/ono=tutaj}@Mnogi rodzaj neutralny może być używany dla dowolnych grup, niezależnie od płci należących do nich osób.
ona/ich/-łaśmy	Formy mnogie oparte na czeskiej liczbie mnogiej	FALSE	ona	ich	ich	ich	nich	im	im	nim	je	je	nie	nimi	nich	tka	a	a	ka	ł	o	ła	ła	ała	ała	ała	ęła	szła	o	państwo	TRUE	TRUE	TRUE	Zaimek „ona” zapożyczony z {https://en.wiktionary.org/wiki/ona=języka chorwackiego, czeskiego, słoweńskiego i serbsko-chorwackiego}, gdzie jest nienacechowaną płciowo formą liczby mnogiej. Dość zresztą intuicyjny w polszczyźnie: jak <em>to okno → te okna</em>, tak to <em>ono → te ona</em>.
ony,ony/ich	Formy mnogie rodzaju postpłciowego z zaimkiem „ony”	FALSE	ony	ich	ich	ich	nich	im	im	nim	ni	ni	ni	nimi	nich	tki	e	e	kie	ł	o	łu	ły	ału	ału	ału	ęłu	szłu	o	państwo	TRUE	TRUE	TRUE	Zaimek „ony” to po czesku liczba mnoga dla rodzaju żeńskiego i męskonieżywotnego.@Formy czasowników z „u” zostały stworzone przez {https://pl.wikipedia.org/wiki/Jacek_Dukaj=Jacka Dukaja} do książki {https://pl.wikipedia.org/wiki/Perfekcyjna_niedoskonałość=„Perfekcyjna niedoskonałość”}. Używają jej tam istoty post-ludzkie (phoebe), które nie mają określonej płci. Od nazwiska autora te formy gramatyczne są nazywane „dukaizmami”.@ Odmiana dukaizmów w liczbie pojedynczej dostępna jest {/onu=tutaj}.@Rzeczowniki zgodne z rodzajem postpłciowym to {/dukatywy=dukatywy}.@Tabelę zaimków (nie tylko osobowych) w rodzaju postpłciowym znajdziesz {/zaimki-postpłciowe=tutaj}.@Oficjalne tabele odmiany dukaizmów Jacek Dukaj opublikował {https://dukaj.wydawnictwoliterackie.pl/odmiany-postplciowe-w-perfekcyjnej-niedoskonalosci/=tutaj}.
onie,onie/ich	Neologiczne formy mnogie z zaimkiem „onie”	FALSE	onie	ich	ich	ich	nich	im	im	nim	je	je	nie	nimi	nich	ce	e	e	ce	l	o	le	le	ele	ele	ele	ęle	szle	o	państwo	TRUE	TRUE	TRUE
onæ,onæ/jæ	Formy z „ae” lub ligaturą „æ”	FALSE	onæ|ˈɔnæ	jæ|jæ	jæ|jæ	jæ|jæ	niæ|ɲæ	jæ|jæ	jæ|jæ	niæ|ɲæ	jæ|jæ	jæ|jæ	niæ|ɲæ	næm|næm	næm|næm		æ|æ	æ|æ	kiæ|cæ			æ|æ	æ|æ	æ|æ	æ|æ	æ|æ	ę	szł	o	panæ|panæ	FALSE	FALSE	TRUE	Formy te używają samogłoski {https://pl.wikipedia.org/wiki/Samog%C5%82oska_prawie_otwarta_przednia_niezaokr%C4%85glona=„æ”}, która jest wymawiana pomiędzy „a” a „e”, ta samogłoska występuje {http://www.dialektologia.uw.edu.pl/index.php?l1≡leksykon&lid≡659=na północnym krańcu Mazowsza i w części wschodniej Mazur}. Kształt litery - połączenie „a” i „e” - oznacza połączenie form „-łam” i „-łem”.
on/a,on/a/jego/jej	Formy z ukośnikiem	TRUE	on/a|ˈɔ̃n.a	jego/jej|jɛˈɡɔ.jɛ̇j	go/jej|ɡɔ.jɛ̇j	jego/jej|jɛˈɡɔ.jɛ̇j	niego/niej|ɲɛˈɡɔ.ɲɛ̇j	mu/jej|ˈmu.jɛ̇j	jemu/jej|ˈmu.jɛ̇j	niemu/niej|ɲɛˈmu.ɲɛ̇j	go/ją|ˈɡɔ.jɔ̃w̃	jego/ją|jɛˈɡɔ.jɔ̃w̃	niego/nią|ɲɛˈɡɔ.ɲɔ̃w̃	nim/ą|ˈɲĩm.ɔ̃w̃	nim/ej|ˈɲĩm.ɛj		y/a|ɨ.a	y/a|ɨ.a	ki/a|ci.a			/a|a	/a|a	e/a|ɛ.a	e/a|ɛ.a	e/a|ɛ.a	ą	szł	o	pan/i|pãn.i	FALSE	FALSE	TRUE
onx,onx/jex	Formy z iksem	FALSE	onx	jex	jex	jex	niex	jex	jex	niex	jex	jex	niex	nix	nix		x	x	kx			x	x	x	x	x	ę&ą	szł	o	panx	FALSE	FALSE	FALSE
on_,on_/je_	Formy z podkreślnikiem	FALSE	on_	je_	je_	je_	nie_	je_	je_	nie_	je_	je_	ni_	ni_	ni_		_	_	k_			_	_	_	_	_	_	sz_ł	_	pan_	FALSE	FALSE	FALSE
on*,on*/je*	Formy z gwiazdką	FALSE	on*	je*	je*	je*	nie*	je*	je*	nie*	je*	je*	ni*	ni*	ni*		*	*	k*			*	*	*	*	*	*	sz*ł	*	pan*	FALSE	FALSE	FALSE
on■,on■/je■	Formy z cenzurą	FALSE	on■	je■	je■	je■	nie■	je■	je■	nie■	je■	je■	ni■	ni■	ni■		■	■	k■			■	■	■	■	■	■	sz■ł	■	pan■	FALSE	FALSE	FALSE
onø,onø/jenø	Formy z samogłoską nosową	FALSE	onø|ˈɔ.nãw̃	jenø|ˈjɛ̃.nãw̃	nø|nãw̃	jenø|ˈjɛ̃.nãw̃	nienø|ˈɲɛ̃.nãw̃	nø|nãw̃	jenø|ˈjɛ̃.nãw̃	nienø|ˈɲɛ̃.nãw̃	nø|nãw̃	jenø|ˈjɛ̃.nãw̃	nienø|ˈɲɛ̃.nãw̃	nøm|nãm	nøm|nãm		ø|ãw̃	ø|ãw̃	kø|kãw̃			ø|ãw̃	ø|ãw̃	ø|ã	ø|ã	ø|ãw̃	ę	szł	o	panø|panãw̃	FALSE	FALSE	TRUE	Formy te używają samogłoski nosowej {https://pl.wikipedia.org/wiki/ø=„ø”}, która występowała w pisowni polszczyzny od XII do XV wieku, i była wymawiana jako „a” nosowe. Kształt litery - przekreślenie - oznacza również sprzeciw wobec binarnego rodzaju gramatycznego
ony/jegi	Neozaimki ony/jegi	FALSE	ony	jegi	gi	jegi	niegi	ny	jeny	nieny	gi	jegi	niegi	nimy	nimy		y	y	ki			y	y	y	y	o	ę	szł	o	pany	FALSE	FALSE	TRUE	"Formy stworzone przez {https://twitter.com/doblinka/status/1310940748309766145=&#64;doblinka}."
'n','n,'n'/je',’n’,’n,’n’/je’	Formy z apostrofem	FALSE	’n’|n̥	je’|jɛː	je’|jɛː	je’|jɛː	nie’|ɲɛː	je’|jɛː	je’|jɛː	nie’|ɲɛː	je’|jɛː	je’|jɛː	nie’|ɲɛː	ni’|ɲiː	ni’|ɲiː		’|	’|	k’|k			’|	’|	’|	’|	e	ą	sze	ó	pa’|paː	FALSE	FALSE	TRUE	Forma stworzona przez Grzegorza Gajka na potrzeby tłumaczenia opowiadania Bogi Takács „Społeczny wizerunek policji”, jako odpowiednik użytych w oryginale {https://en.pronouns.page/e=zaimków Spivaka}. Cytując tłumacza: „Jako że nie udało mi się znaleźć satysfakcjonującego gotowego rozwiązania, postanowiłem stworzyć własną propozycję, bazującą na tropie anglosaskim. Usunąłem więc determinanty rodzaju, a ich nieobecność zaznaczyłem – dla większej przejrzystości graficznej – apostrofami, które w języku mówionym mogłyby też sygnalizować wzdłużenie ostatniej samogłoski. Tym sposobem <i>on/ona</i> zmieniło się w <i>'n'</i> (wymawiane <i>n</i>), <i>jego/jej</i> w <i>je'</i> (wymawiane <i>jee</i>) itd. Podobnie z czasownikami, np. <i>poszedłem/poszłam</i> zmieniło się w <i>posze'm</i> (wymawiane <i>poszeem</i>), <i>poszedł/poszła</i> w <i>posze'</i> (wymawiane <i>poszee</i>) itd.”
miau,miau/miaugo	Neozaimki z rodzajem neutralnym	FALSE	miau	miaugo	miaugo	miaugo	miaugo	miaumu	miaumu	miaumu	miaugo	miaugo	miaugo	miauim	miauim		e	e	kie			o	o	o	o	e	ą	szł	o	miau	FALSE	FALSE	TRUE	"Formy stworzone przez {https://zaimki.pl/\@Sybil=&#64;Sybil}."
wona,wona/wej	Rodzaj żeński z neozaimkami wona/wej	FALSE	wona	wej	wej	wej	wiej	wej	wej	wiej	wą	wą	wią	wią	wiej		a	a	ka			a	a	a	a	e	ę	szł	o	wani	FALSE	FALSE	TRUE	"Formy stworzone przez {https://zaimki.pl/\@Lunis=&#64;Lunis}."
ta,ta/tej,ta osoba/tej osoby	Rodzaj osobowy	TRUE	ta [osoba]	tej [osoby]	tej [osoby]	tej [osoby]	tej [osoby]	tej [osobie]	tej [osobie]	tej [osobie]	tę [osobę]	tę [osobę]	tę [osobę]	tą [osobą]	tej [osobie]		ą	ą [osobą]	ką			a	a	a	a	a	ę	szł	o	osoba	FALSE	FALSE	TRUE	Formy te używają zaimka wskazującego „ta” w roli zaimka osobowego. Choć gramatycznie jest to rodzaj żeński, to ze względu na „osobę” może być też rozumiany jako forma niewskazująca na płeć i przewrotnie walcząca z {https://pl.wikipedia.org/wiki/M%C4%99ska_dominacja_j%C4%99zykowa=androcentryzmem w języku}. Gramatycznie są to formy normatywne i zgodne z {/osobatywy=osobatywami}.
