key	description	normative	nominative	accusative	pronominal_poss	predicative_poss	dative	plural	pluralHonorific	pronounceable	history	thirdForm	smallForm	sourcesInfo
zij,zij/haar,zij/haar/haar	Vrouwelijk	TRUE	zij	haar	haar	hare	haar	FALSE	FALSE	TRUE	Als voornaamwoorden geen nadruk hebben, dan kun je vormvarianten gebruiken. Het woord ‹zij› wordt dan ‹ze›, en ‹haar› wordt ‹d’r›, ‹’r› of ‹er›. De voorbeeldzinnen worden dan: ‹<strong>Ze</strong> zou er nu ongeveer moeten zijn.› en bijvoorbeeld ‹Jij zei <strong>d’r</strong> dat <strong>’r</strong> veter los zat.›
hij,hij/hem,hij/hem/zijn	Mannelijk	TRUE	hij	hem	zijn	zijne	hem	FALSE	FALSE	TRUE	Bij een inversie kun je ook ‹ie› of ‹-ie› gebruiken in plaats van ‹hij›, als het geen nadruk heeft. Bijvoorbeeld: ‹Ik wist niet dat <strong>ie</strong> / dat<strong>-ie</strong> er al was.›@Er zijn ook vormvarianten van ‹hem› en ‹zijn›: ‹’m› en ‹z’n›, als ze niet benadrukt zijn. De derde zin in het voorbeeld is dan: ‹Jij zei <strong>’m</strong> dat <strong>z’n</strong> veter los zat.›
hen,hen/hun,hen/hen/hun,hen/hun/hun	Neutraal	FALSE	hen	hen	hun	hunne	hun	FALSE	FALSE	TRUE
hen/hens,hen/hen/hens	Neutraal	FALSE	hen	hen	hens	hense	hun	FALSE	FALSE	TRUE
die/hen,die/hen/hun	Neutraal	FALSE	die	hen	hun	hunne	hun	FALSE	FALSE	TRUE
die,die/die,die/diens,die/die/diens	Neutraal	FALSE	die	die	diens	diense	die	FALSE	FALSE	TRUE	In plaats van ‹die› kun je ook ‹diegene› gebruiken. De voorbeeldzin wordt dan: ‹Jij zei <strong>diegene</strong> dat diens veter los zat.›
dee,dee/dem,dee/dem/dijr	Neutraal	FALSE	dee	dem	dijr	dijre	dem	FALSE	FALSE	TRUE
dij,dij/dem,dij/dem/dijr	Neutraal	FALSE	dij	dem	dijr	dijre	dem	FALSE	FALSE	TRUE
nij,nij/ner,nij/nem/nijr	Neutraal	FALSE	nij	ner	nijr	nijre	ner	FALSE	FALSE	TRUE	Bedacht door {https://www.transgendernetwerk.nl/verkiezing-non-binaire-voornaamwoord/#comment-449=Sylvia Londo}
vij,vij/vijn,vij/vijn/vijns	Neutraal	FALSE	vij	vijn	vijns	vijne	vijn	FALSE	FALSE	TRUE
vij/her,vij/her/zaar	Neutraal	FALSE	vij	her	zaar	zare	her	FALSE	FALSE	TRUE	Bedacht door {https://neerlandistiek.nl/2012/04/vij/=Marc van Oostendorp}
zhij,zhij/zhaar,zhij/zhaar/zhaar	Neutraal	FALSE	zhij	zhaar	zhaar	zhare	zhaar	FALSE	FALSE	TRUE	"Gebaseerd op het Engelse voornaamwoord {https://en.pronouns.page/zhe=zhe/zher}."
zem,zem/zeer,zem/zeer/zeer	Neutraal	FALSE	zem	zeer	zeer	zere	zeer	FALSE	FALSE	TRUE	"Gebaseerd op het Engelse voornaamwoord {https://en.pronouns.page/ze/zir=ze/zir}."

